<?xml version="1.0" encoding="utf-8"?>
<!-- Generator: Adobe Illustrator 19.2.1, SVG Export Plug-In . SVG Version: 6.00 Build 0)  -->
<svg version="1.1" id="レイヤー_1" xmlns="http://www.w3.org/2000/svg" xmlns:xlink="http://www.w3.org/1999/xlink" x="0px"
	 y="0px" viewBox="0 0 42 14" style="enable-background:new 0 0 42 14;" xml:space="preserve">
<style type="text/css">
	.st0{fill:#009FB5;}
	.st1{fill:#00698A;}
	.st2{fill:#006780;}
	.st3{fill:#004586;}
	.st4{fill:#004F7E;}
	.st5{fill:#005896;}
	.st6{fill:#6DA3BA;}
	.st7{fill:#00759F;}
</style>
<g id="XMLID_1_">
	<path id="XMLID_11_" class="st0" d="M19.2647038,13.0054512c-0.1158485,0.5157757-0.6274872,0.9329691-1.1436424,0.9329691
		H16.805191c-0.5161552,0-0.8397074-0.4171934-0.7237206-0.9329691L18.746109,0.994913
		c0.1151829-0.515564,0.6276226-0.9333332,1.1433392-0.9333332h1.3160992c0.5148964,0,0.8391151,0.4177692,0.7237816,0.9333332
		L19.2647038,13.0054512z"/>
	<path id="XMLID_10_" class="st1" d="M34.6526108,13.0054512c-0.1157608,0.5157757-0.6273956,0.9329691-1.1434746,0.9329691
		h-1.3164024c-0.5157928,0-0.8392677-0.4171934-0.7234936-0.9329691L34.133728,0.994913
		c0.1153183-0.515564,0.6274109-0.9333332,1.1436272-0.9333332h1.3161125c0.5147438,0,0.8390999,0.4177692,0.7233429,0.9333332
		L34.6526108,13.0054512z"/>
	<path id="XMLID_9_" class="st2" d="M14.1466913,13.0054512c-0.1158352,0.5157757-0.6276236,0.9329691-1.1433249,0.9329691
		h-1.3161888c-0.5157003,0-0.8392525-0.4171934-0.7238579-0.9329691L13.6282473,0.994913
		c0.1157742-0.515564,0.6274118-0.9333332,1.1436424-0.9333332h1.3156595c0.5153351,0,0.8395557,0.4177692,0.7242203,0.9333332
		L14.1466913,13.0054512z"/>
	<path id="XMLID_8_" class="st3" d="M3.877526,13.0054512c-0.1155467,0.5157757-0.6274877,0.9329691-1.1433396,0.9329691H1.4184517
		c-0.5165948,0-0.8405864-0.4171934-0.7242969-0.9329691l1.5206931-6.7085929
		c0.1160774-0.5152607,0.6278512-0.9338484,1.1439307-0.9338484h1.3159623c0.5160794,0,0.8398438,0.4185877,0.72363,0.9338484
		L3.877526,13.0054512z"/>
	<path id="XMLID_7_" class="st4" d="M39.7851295,13.0054512c-0.1159248,0.5157757-0.6278496,0.9329691-1.1436424,0.9329691
		H37.325695c-0.5163841,0-0.8406029-0.4171934-0.7242393-0.9329691l1.5208473-6.7085929
		c0.1162109-0.5152607,0.6281548-0.9338484,1.1439285-0.9338484h1.3158112c0.5157928,0,0.839859,0.4185877,0.7239342,0.9338484
		L39.7851295,13.0054512z"/>
	<path id="XMLID_6_" class="st5" d="M24.3619785,13.0054512c-0.1153183,0.5157757-0.6269569,0.9329691-1.1431866,0.9329691
		h-1.3156605c-0.5163822,0-0.840662-0.4171934-0.7242355-0.9329691l1.5212994-6.7085929
		c0.1148796-0.5152607,0.6271095-0.9338484,1.1431885-0.9338484h1.3159618c0.515625,0,0.8398438,0.4185877,0.7240696,0.9338484
		L24.3619785,13.0054512z"/>
	<path id="XMLID_5_" class="st6" d="M29.5275021,13.0054512c-0.1153183,0.5157757-0.6273956,0.9329691-1.1433392,0.9329691
		h-1.3158092c-0.5165195,0-0.8402843-0.4171934-0.7240715-0.9329691l1.9472103-8.8001366
		c0.1163673-0.5150504,0.6284428-0.9335606,1.1442337-0.9335606h1.3162498c0.515625,0,0.8389645,0.4185102,0.7236309,0.9335606
		L29.5275021,13.0054512z"/>
	<path id="XMLID_4_" class="st7" d="M9.0281782,13.0054512c-0.1158504,0.5157757-0.6271849,0.9329691-1.1433396,0.9329691H6.5689521
		c-0.515852,0-0.840147-0.4171934-0.7235541-0.9329691l1.9469819-8.8001366
		c0.1159258-0.5150504,0.6280789-0.9335606,1.1439309-0.9335606h1.3161888c0.515852,0,0.8390255,0.4185102,0.7237062,0.9335606
		L9.0281782,13.0054512z"/>
</g>
</svg>
